Project title
…
$ C150_4       <dbl> 0.9558, 0.9523, 0.9763, 0.9639, 0.9802, 0.9419, 0.9156, 0…
$ AGE_ENTRY    <dbl> 19.34846, 19.70933, 22.46359, 19.53215, 19.25682, 19.5687…
$ FAMINC       <dbl> 86738.82, 80447.91, 62458.19, 80258.13, 63667.64, 84483.6…
$ MD_FAMINC    <dbl> 53870.0, 44842.0, 33066.0, 44004.0, 37036.0, 65041.0, 448…
$ ENDOWBEGIN   <dbl> 17443750000, 27699834000, 40929700000, 30314816000, 25623…
$ SAT_AVG      <dbl> 1550, 1491, 1520, 1520, 1506, 1533, 1566, 1530, 1508, 150…
$ SATVRMID     <dbl> 755, 735, 750, 750, 740, 740, 760, 745, 740, 740, 740, 74…
$ SATMTMID     <dbl> 790, 760, 770, 770, 770, 775, 795, 775, 760, 760, 775, 77…
$ SATWRMID     <dbl> 735, 735, 750, 750, 750, 725, 765, 735, 735, 725, 735, 74…
$ ACTCMMID     <dbl> 35, 33, 34, 34, 34, 35, 36, 35, 34, 34, 34, 34, 34, 34, 3…
$ ACTENMID     <dbl> 36, 35, 36, 35, 35, 35, 36, 36, 35, 35, 35, 35, 35, 35, 3…
$ ACTMTMID     <dbl> 35, 33, 33, 33, 33, 34, 36, 34, 33, 33, 33, 33, 33, 33, 3…
$ ACTWRMID     <dbl> 9, NA, 9, NA, 9, 9, 9, 9, NA, NA, 9, 9, 9, 9, 9, NA, NA, …

# A tibble: 498 × 3
   REGION      CONTROL            CCBASIC
   <chr>       <chr>              <chr>  
 1 New England Private, Nonprofit 15     
 2 Far West    Private, Nonprofit 15     
 3 New England Private, Nonprofit 15     
 4 New England Private, Nonprofit 15     
 5 Mid East    Private, Nonprofit 15     
 6 Southwest   Private, Nonprofit 15     
 7 Far West    Private, Nonprofit 15     
 8 Southeast   Private, Nonprofit 15     
 9 New England Private, Nonprofit 15     
10 New England Private, Nonprofit 15     
# … with 488 more rows
…
